Data munging
…
- column headers include both sex and age

---

```r
tb %>% 
  gather(sex_age, n, -iso2, -year, -fu)
```

```
## # A tibble: 109,611 x 5
##    iso2   year    fu sex_age     n
##    <chr> <int> <int> <chr>   <int>
##  1 AD     1989    NA m04        NA
##  2 AD     1990    NA m04        NA
##  3 AD     1991    NA m04        NA
##  4 AD     1992    NA m04        NA
##  5 AD     1993    NA m04        NA
##  6 AD     1994    NA m04        NA
##  7 AD     1996    NA m04        NA
##  8 AD     1997    NA m04        NA
##  9 AD     1998    NA m04        NA
## 10 AD     1999    NA m04        NA
## # … with 109,601 more rows
```

---

```r
tb %>% 
  gather(sex_age, n, -iso2, -year, -fu, na.rm=T)
```

```
## # A tibble: 35,478 x 5
##    iso2   year    fu sex_age     n
##    <chr> <int> <int> <chr>   <int>
##  1 AD     2005     0 m04         0
##  2 AD     2006     0 m04         0
##  3 AD     2008     0 m04         0
##  4 AE     2006    NA m04         0
##  5 AE     2007    NA m04         0
##  6 AE     2008     0 m04         0
##  7 AG     2007    NA m04         0
##  8 AL     2005     0 m04         0
##  9 AL     2006     0 m04         1
## 10 AL     2007     0 m04         0
## # … with 35,468 more rows
```

---

```r
tb %>% 
  gather(sex_age, n, -iso2, -year, -fu, na.rm=T) %>% 
  separate(sex_age, c('sex','age'), sep=1) # by position
```

```
## # A tibble: 35,478 x 6
##    iso2   year    fu sex   age       n
##    <chr> <int> <int> <chr> <chr> <int>
##  1 AD     2005     0 m     04        0
##  2 AD     2006     0 m     04        0
##  3 AD     2008     0 m     04        0
##  4 AE     2006    NA m     04        0
##  5 AE     2007    NA m     04        0
##  6 AE     2008     0 m     04        0
##  7 AG     2007    NA m     04        0
##  8 AL     2005     0 m     04        0
##  9 AL     2006     0 m     04        1
## 10 AL     2007     0 m     04        0
## # … with 35,468 more rows
```

This still needs to be cleaned

---

# Variables stored in rows and columns

```r
weather <- import('data/weather.csv') %>% as_tibble()
weather
```

```
## # A tibble: 22 x 35
##    id     year month element    d1    d2    d3    d4    d5    d6    d7
##    <chr> <int> <int> <chr>   <dbl> <dbl> <dbl> <dbl> <dbl> <dbl> <dbl>
##  1 MX17…  2010     1 tmax       NA  NA    NA      NA  NA      NA    NA
##  2 MX17…  2010     1 tmin       NA  NA    NA      NA  NA      NA    NA
##  3 MX17…  2010     2 tmax       NA  27.3  24.1    NA  NA      NA    NA
##  4 MX17…  2010     2 tmin       NA  14.4  14.4    NA  NA      NA    NA
##  5 MX17…  2010     3 tmax       NA  NA    NA      NA  32.1    NA    NA
##  6 MX17…  2010     3 tmin       NA  NA    NA      NA  14.2    NA    NA
##  7 MX17…  2010     4 tmax       NA  NA    NA      NA  NA      NA    NA
##  8 MX17…  2010     4 tmin       NA  NA    NA      NA  NA      NA    NA
##  9 MX17…  2010     5 tmax       NA  NA    NA      NA  NA      NA    NA
## 10 MX17…  2010     5 tmin       NA  NA    NA      NA  NA      NA    NA
## # … with 12 more rows, and 24 more variables: d8 <dbl>, d9 <lgl>,
## #   d10 <dbl>, d11 <dbl>, d12 <lgl>, d13 <dbl>, d14 <dbl>, d15 <dbl>,
## #   d16 <dbl>, d17 <dbl>, d18 <lgl>, d19 <lgl>, d20 <lgl>, d21 <lgl>,
## #   d22 <lgl>, d23 <dbl>, d24 <lgl>, d25 <dbl>, d26 <dbl>, d27 <dbl>,
## #   d28 <dbl>, d29 <dbl>, d30 <dbl>, d31 <dbl>
```

---

```r
weather %>% 
* gather(day, temp, d1:d31)
```

```
## # A tibble: 682 x 6
##    id       year month element day    temp
##    <chr>   <int> <int> <chr>   <chr> <dbl>
##  1 MX17004  2010     1 tmax    d1       NA
##  2 MX17004  2010     1 tmin    d1       NA
##  3 MX17004  2010     2 tmax    d1       NA
##  4 MX17004  2010     2 tmin    d1       NA
##  5 MX17004  2010     3 tmax    d1       NA
##  6 MX17004  2010     3 tmin    d1       NA
##  7 MX17004  2010     4 tmax    d1       NA
##  8 MX17004  2010     4 tmin    d1       NA
##  9 MX17004  2010     5 tmax    d1       NA
## 10 MX17004  2010     5 tmin    d1       NA
## # … with 672 more rows
```

`d1:d31` denotes all the variables physically between `d1` and `d31` in the dataset

> See what happens when you type `1:10` in the console

---

```r
weather %>% 
  gather(date, temp, d1:d31) %>% 
* spread(element, temp)
```

```
## # A tibble: 341 x 6
##    id       year month date   tmax  tmin
##    <chr>   <int> <int> <chr> <dbl> <dbl>
##  1 MX17004  2010     1 d1       NA    NA
##  2 MX17004  2010     1 d10      NA    NA
##  3 MX17004  2010     1 d11      NA    NA
##  4 MX17004  2010     1 d12      NA    NA
##  5 MX17004  2010     1 d13      NA    NA
##  6 MX17004  2010     1 d14      NA    NA
##  7 MX17004  2010     1 d15      NA    NA
##  8 MX17004  2010     1 d16      NA    NA
##  9 MX17004  2010     1 d17      NA    NA
## 10 MX17004  2010     1 d18      NA    NA
## # … with 331 more rows
```
…
