Joins, summaries and subgroups
…
---

# More about `select`

.left-column30[

```r
dos %>% 
  select(starts_with("Award"))
```
]
.right-column30[

```
# A tibble: 558,878 x 24
   Award_Identifier Award_Title Award_Descripti… Award_Status
   <chr>            <chr>       <chr>            <chr>       
 1 1040240201       ""          Ambassadors-At-… Implementat…
 2 1040240201       ""          Ambassadors-At-… Implementat…
 3 1040240201       ""          Ambassadors-At-… Implementat…
 4 1040240220       ""          Ambassadors-At-… Implementat…
 5 1040240202       ""          Ambassadors-At-… Implementat…
 6 1040240202       ""          Ambassadors-At-… Implementat…
 7 1040240204       ""          Ambassadors-At-… Implementat…
 8 1040240204       ""          Ambassadors-At-… Implementat…
 9 1040240225       ""          Ambassadors-At-… Implementat…
10 1040240225       ""          Ambassadors-At-… Implementat…
# … with 558,868 more rows, and 20 more variables:
#   Award_Collaboration_Type <chr>, Award_Total_Estimated_Value <dbl>,
#   Award_Interagency_Transfer_Status <chr>, Award_Start_Date <chr>,
#   Award_End_Date <chr>, Award_Transaction_Description <chr>,
#   Award_Transaction_Value <dbl>, Award_Transaction_Type <chr>,
#   Award_Transaction_Date <chr>, Award_Transaction_Fiscal_Year <int>,
#   Award_Transaction_Fiscal_Quarter <int>,
#   Award_Transaction_Aid_Type <chr>, Award_Transaction_Tied_Status <chr>,
#   Award_Transaction_Flow_Type <chr>,
…
# More about `select`

.left-column30[

```r
dos %>% 
  select(ends_with("Value"))
```
]
.right-column30[

```
# A tibble: 558,878 x 2
   Award_Total_Estimated_Value Award_Transaction_Value
                         <dbl>                   <dbl>
 1                           0                    194.
 2                           0                    301.
 3                           0                    287.
 4                           0                   2470.
 5                           0                   1031.
 6                           0                   2853.
 7                           0                   3431.
 8                           0                    912.
 9                           0                    525.
10                           0                   1436.
# … with 558,868 more rows
```
…
# More about `select`

.left-column30[

```r
dos %>% 
  select(contains("Transaction"))
```
]
.right-column30[

```
# A tibble: 558,878 x 15
   Award_Transacti… Award_Transacti… Award_Transacti… Award_Transacti…
   <chr>                       <dbl> <chr>            <chr>           
 1 ""                           194. Disbursement     2011-11-30 00:0…
 2 ""                           301. Commitment       2011-10-31 00:0…
 3 ""                           287. Disbursement     2011-10-31 00:0…
 4 ""                          2470. Commitment       2011-10-31 00:0…
 5 ""                          1031. Commitment       2011-11-30 00:0…
 6 ""                          2853. Disbursement     2011-11-30 00:0…
 7 ""                          3431. Disbursement     2011-12-31 00:0…
 8 ""                           912. Disbursement     2011-11-30 00:0…
 9 ""                           525. Commitment       2011-12-31 00:0…
10 ""                          1436. Disbursement     2011-12-31 00:0…
# … with 558,868 more rows, and 11 more variables:
#   Award_Transaction_Fiscal_Year <int>,
#   Award_Transaction_Fiscal_Quarter <int>,
#   Award_Transaction_Aid_Type <chr>, Award_Transaction_Tied_Status <chr>,
#   Award_Transaction_Flow_Type <chr>,
#   Award_Transaction_Finance_Type <chr>,
#   Award_Transaction_DAC_Purpose_Code <int>,
#   Award_Transaction_DAC_Purpose_Code_Name <chr>,
#   Award_Transaction_US_Foreign_Assistance_Code <int>,
…
We want to see what the average area per person is across DOS

```r
staffing_data <- import('Data/FSI/Staffing_by_Bureau.csv')
real_estate <- import('Data/FSI/DoS_Real_Estate_Allocation.csv')
```

---

```r
staffing_data %>% as_tibble()
```

```
# A tibble: 10,000 x 6
   Bureau                      Gender Grade Title    Name      YearsService
   <chr>                       <chr>  <chr> <chr>    <chr>            <int>
 1 Protocol (S/CPR)            female FS1   Manager  Cathy Ca…           13
 2 Administration (A)          male   GS-9  Team Me… Jeffery …           13
 3 Intelligence and Research … male   FS-6  Analyst  Max Green           11
 4 Mission to the United Nati… male   FS-3  Manager  Donald A…            7
 5 Foreign Missions (OFM)      male   FS-6  Team Me… Thomas L…           22
 6 International Narcotics an… male   GS-8  Team Me… Joseph A…           12
 7 Administration (A)          male   GS-12 Analyst  Michael …            6
 8 Intelligence and Research … male   FS-5  Team Me… Jesus Sh…            2
 9 Science & Technology Advis… male   N/A   Manager  Lawrence…           19
10 Administration (A)          female FS-8  Team Me… Jennie C…           17
# … with 9,990 more rows
```

```r
real_estate %>% as_tibble()
```

```
# A tibble: 666 x 4
   Building Bureau               Location  Size
   <chr>    <chr>                   <int> <int>
 1 HST      Administration (A)       4779   640
 2 SA2      Administration (A)       4801  1090
 3 HST      Administration (A)       5109  1040
 4 HST      Administration (A)       3717  1620
 5 SA4      Administration (A)       3940  1390
 6 HST      Administration (A)       3661  1480
 7 HST      Administration (A)       3374  1770
 8 HST      Administration (A)       3387  1940
 9 SA10     African Affairs (AF)     2605   640
10 HST      African Affairs (AF)     3573   720
# … with 656 more rows
```
…
---

```r
staff_summary %>% 
  inner_join(realestate_summary, by = c("Bureau" = "Bureau"))
```

```
# A tibble: 54 x 3
   Bureau                                             Pop  Size
   <chr>                                            <int> <int>
 1 Administration (A)                                 454 10970
 2 African Affairs (AF)                                42 26750
 3 Allowances (A/OPR/ALS)                              90  3010
 4 Arms Control, Verification and Compliance (AVC)     98  8410
 5 Budget and Planning (BP)                           168  7500
 6 Chief Information Officer (CIO)                    222 11390
 7 Comptroller and Global Financial Services (CGFS)   169 15700
 8 Conflict and Stabilization Operations (CSO)        392 14970
 9 Consular Affairs (CA)                              141 36610
10 Counterterrorism (CT)                              324  9980
# … with 44 more rows
```

---

```r
staff_summary %>% 
  inner_join(realestate_summary, by = c("Bureau" = "Bureau")) %>% 
  mutate(unit_area = Size/Pop) %>% 
  arrange(unit_area)
```

```
# A tibble: 54 x 4
   Bureau                                               Pop  Size unit_area
   <chr>                                              <int> <int>     <dbl>
 1 Global Youth Issues (GYI)                            345  2090      6.06
 2 Policy Planning Staff (S/P)                          240  2420     10.1 
 3 Science & Technology Adviser (STAS)                  305  4240     13.9 
 4 Foreign Missions (OFM)                               311  4420     14.2 
 5 Trafficking in Persons (TIP)                         247  5150     20.9 
 6 Medical Services (MED)                               308  6760     21.9 
 7 Protocol (S/CPR)                                     327  7730     23.6 
 8 Administration (A)                                   454 10970     24.2 
 9 Oceans and International Environmental and Scient…   330  8420     25.5 
10 Energy Resources (ENR)                               369 10890     29.5 
# … with 44 more rows
```
…
The `semi-join` and `anti-join` are really filters rather than joins

The last two just put data frames together as long as they conform in dimension
]

---

```r
library(tidyverse)
mtcars1 <- mtcars %>% rownames_to_column('cars') %>% as_tibble()
mtcars1
```

```
# A tibble: 32 x 12
   cars    mpg   cyl  disp    hp  drat    wt  qsec    vs    am  gear  carb
   <chr> <dbl> <dbl> <dbl> <dbl> <dbl> <dbl> <dbl> <dbl> <dbl> <dbl> <dbl>
 1 1      21       6  160    110  3.9   2.62  16.5     0     1     4     4
 2 2      21       6  160    110  3.9   2.88  17.0     0     1     4     4
 3 3      22.8     4  108     93  3.85  2.32  18.6     1     1     4     1
 4 4      21.4     6  258    110  3.08  3.22  19.4     1     0     3     1
 5 5      18.7     8  360    175  3.15  3.44  17.0     0     0     3     2
 6 6      18.1     6  225    105  2.76  3.46  20.2     1     0     3     1
 7 7      14.3     8  360    245  3.21  3.57  15.8     0     0     3     4
 8 8      24.4     4  147.    62  3.69  3.19  20       1     0     4     2
 9 9      22.8     4  141.    95  3.92  3.15  22.9     1     0     4     2
10 10     19.2     6  168.   123  3.92  3.44  18.3     1     0     4     4
# … with 22 more rows
```
…
---

# Foreign aid (DOS)

```r
dos %>% 
  group_by(Implementing_Organization) %>% 
  summarize(amt = sum(Award_Transaction_Value)) %>% 
  arrange(desc(amt))
```

```
# A tibble: 9,236 x 2
   Implementing_Organization                        amt
   <chr>                                          <dbl>
 1 United Nations High Commission           9548068186 
 2 ""                                       3374123507.
 3 Information Redacted                     3046872292.
 4 Un Relief & Works Agency                 2975220114 
 5 Intl Committee - The Red Cross           2796820000 
 6 S/S-Ex Miscellanous Vendor               2433986355.
 7 International Organization For Migration 1886668868.
 8 P A E                                     961874214.
 9 Pm Miscellaneous  Vendor                  925306561.
10 Un Childrens Fund                         775056737.
# … with 9,226 more rows
```
…
---
# Foreign aid (DOS)

```r
dos %>% 
  group_by(Implementing_Organization, year = year(as_date(Award_Start_Date))) %>% 
  summarize(amt = sum(Award_Transaction_Value)) %>% 
  filter(Implementing_Organization != '', !is.na(year)) 
```

```
# A tibble: 3,907 x 3
# Groups:   Implementing_Organization [2,098]
   Implementing_Organization                                  year      amt
   <chr>                                                     <dbl>    <dbl>
 1 'Bsk-Asia' Llp                                             2015   1.53e5
 2 'Terratech' Ltd.                                           2015   2.59e5
 3 (Foreign Parent Is Institute For International Research …  2013   6.27e3
 4 (Foreign Parent Is Open Text Corporation, Waterloo, Cana…  2012   7.91e4
 5 3m Cogent, Inc.                                            2016   1.29e6
 6 5 GYRES INSTITUTE, THE                                     2016  -1.24e5
 7 A + P Consultants                                          2012   3.96e5
 8 A + P Consultants                                          2013   8.75e4
 9 A + P Consultants                                          2014   6.65e4
10 A Call To Serve Missouri                                   2013   6.70e5
# … with 3,897 more rows
```
…
